ｴｰｼﾞｪﾝﾄｸﾞﾙｰﾌﾟ:,下関
日付:,2018/03/23
ﾀｲﾑｿﾞｰﾝ:,既定
ｴｰｼﾞｪﾝﾄ名,ACD呼,平均ACD時間,平均後処理時間,後処理を含むｴｰｼﾞｪﾝﾄ占有率,後処理を含まないｴｰｼﾞｪﾝﾄ占有率,内線着信呼,平均内線着信時間,内線発信呼,平均内線発信時間,ACD時間,後処理時間,ｴｰｼﾞｪﾝﾄ呼出し時間,その他の時間,AUX時間,応答可能時間,ﾛｸﾞｲﾝ時間
合計,522,440.411865234,62.3620681763,67,59,32,506.71875,170,84.4588241577,229895,32847,2889,14460,370160,133369,783620
小林　優三,0,,,0,0,26,533.076904297,0,,0,0,0,5,23580,0,23585
小松　一行,32,351.875,95.71875,72,57,0,,2,68,11260,3063,164,851,12691,6154,34183
塚本　久善,50,334.859985352,63.9199981689,88,75,0,,14,70.5714263916,16743,3196,255,1020,10611,2928,34753
玉井　一樹,29,460,32.310344696,78,74,1,343,9,117.333335876,13340,937,135,1363,16213,4406,36394
小林　雅子,21,633.285705566,117.571426392,66,56,0,,2,139.5,13299,2469,163,633,10772,8452,35788
中島　尚士,32,486.78125,67.4375,83,73,0,,21,87.3809509277,15577,2452,186,1014,13160,3952,36341
上野　賢治,6,486.666656494,58.6666679382,42,37,3,633.666687012,0,,2920,352,37,4242,26473,355,34379
川﨑　瑛里子,46,449.847839355,28.1956520081,95,89,0,,23,45.7391319275,20693,1297,189,1106,12879,1324,37488
平山　敬太,0,,,0,0,0,,0,,0,0,0,5,0,33039,33044
梶間　亮,30,667.533325195,57.4333343506,84,78,0,,6,105,20026,1723,174,972,9501,4256,36652
千葉　丈士,0,,,,,1,107,6,55.5,0,0,0,0,37559,0,37559
三島　公太,41,447.609741211,66.8048782349,81,71,0,,6,93.8333358765,18352,2739,206,644,10861,5052,37854
河内　弘輝,7,594.857116699,0.714285731316,73,72,1,4,7,56.8571434021,4164,5,29,1625,31370,0,37193
上原　健司,5,1792.59997559,100.400001526,37,35,0,,0,,8963,502,55,0,6769,16443,32732
小林　由佳,18,359.277770996,52.8888893127,88,78,0,,9,115.111114502,6467,952,80,43,26997,1085,35624
佐伯　佳奈,0,,,0,0,0,,1,389,0,0,0,5,38571,0,38576
田中　浩人,62,325.516143799,21.1612911224,88,83,0,,16,56.125,20182,1312,266,20,11259,3147,36186
本田　祐樹,49,385.530609131,72.1224517822,90,76,0,,18,56.6111106873,18891,3534,276,92,12191,2720,37704
藤村　和輝,44,283.545440674,31.75,88,79,0,,17,72.2352905273,12476,1397,178,28,19044,1999,35122
戸曽　和哉,4,903.5,100.25,19,17,0,,1,1393,3614,401,28,480,9598,19171,33292
中林　成美,16,698.0625,164.1875,69,56,0,,0,,11169,2627,241,2,17295,6264,37598
半田　正和,0,,,0,0,0,,0,,0,0,0,0,3510,2093,5603
佐々木　栄治,30,391.966674805,129.633331299,61,47,0
